Index	GeaendertVon	Aenderungsdatum	Nummer	Status	Breite	Tiefe	OffsetBreite	OffsetTiefe	MaxArtikelHoehe	PackungsAbstand	AnzPackungen	ZaehlRevers	GruppeVorne	SollGeraet	Hhg1Regal	Hhg1PhyXStart	Hhg1PhyYStart	Hhg1PhyZStart	Hhg1PhyXEnde	Hhg1PhyYEnde	Hhg1PhyZEnde	Hhg2Regal	Hhg2PhyXStart	Hhg2PhyYStart	Hhg2PhyZStart	Hhg2PhyXEnde	Hhg2PhyYEnde	Hhg2PhyZEnde	HhgDefektSperren	Hhg1DefektSperren	Hhg2DefektSperren	
1	207	20131209105721|1386583041	1	1	8800	3900	0	0	650	300	0	N	N	2	1	95063	13435	900	103857	13404	900	1	95073	13410	800	103867	13364	800	N	N	N	
2	207	20131209105853|1386583133	2	1	8800	3900	0	0	650	300	0	N	J	1	1	66030	13390	900	74821	13410	900	1	66050	13370	800	74841	13390	800	N	N	N	
3	207	20131208224021|1386538821	3	1	8800	3900	0	0	650	300	0	N	N	2	1	95067	11670	900	103840	11690	900	1	95067	11670	800	103840	11670	800	N	N	N	
4	207	20131205192026|1386267626	4	1	8800	3900	0	0	650	300	0	N	J	1	1	66030	11660	900	74821	11660	900	1	66050	11650	800	74841	11630	800	N	N	N	
5	207	20131205191451|1386267291	5	1	8800	3900	0	0	650	300	0	N	N	2	1	95085	9900	900	103880	9900	900	1	95055	9890	800	103850	9880	800	N	N	N	
6	207	20131205191336|1386267216	6	1	8800	3900	0	0	650	300	0	N	J	1	1	66040	9900	900	74831	9900	900	1	66050	9890	800	74841	9885	800	N	N	N	
7	207	20131205191711|1386267431	7	1	8800	3900	0	0	650	300	0	N	N	2	1	95080	8170	900	103870	8150	900	1	95070	8160	800	103860	8140	800	N	N	N	
8	207	20131205191253|1386267173	8	1	8800	3900	0	0	650	300	0	N	J	1	1	66040	8155	900	74831	8140	900	1	66060	8140	800	74841	8130	800	N	N	N	
EOF
